name="Magna Europa"
replace_path="common/bookmarks"
replace_path="history/countries"
replace_path="history/states"
replace_path="history/units"
replace_path="map/strategicregions"
replace_path="map/supplyareas"
replace_path="common/ai_equipment"
replace_path="common/ai_focuses"
replace_path="common/ai_peace"
replace_path="common/ai_strategy"
replace_path="common/ai_strategy_plans"
replace_path="common/ai_templates"
replace_path="common/national_focus"
replace_path="common/decisions"
replace_path="common/decisions/categories"
replace_path="events"
replace_path="common/operations"
replace_path="common/occupation_laws"
replace_path="common/units/codenames_operatives"
replace_path="common/scripted_effects"
replace_path="common/scripted_localisation"
replace_path="common/scripted_triggers"
replace_path="common/ideas"
replace_path="common/on_actions"
replace_path="common/units/names_divisions"
replace_path="common/units/names"
replace_path="common/units/names_ships"
replace_path="common/autonomous_states"
replace_path="common/abilities"
replace_path="common/technology_sharing"
tags={
	"Map"
	"Utilities"
}
picture="Thumbnail.png"
version="0.0.4"
supported_version="1.10.*"
remote_file_id="2152140768"